dump.vcd
$date
	Sun Oct 24 22:15:30 2021
$end
$version
	Icarus Verilog
$end
$timescale
	1s
$end
$scope module tb_top $end
$var wire 1 ! pslverror $end
$var wire 1 " pready $end
$var wire 32 # prdata [31:0] $end
$var reg 32 $ d [31:0] $end
$var integer 32 % global_verbosity [31:0] $end
$var reg 32 & paddr [31:0] $end
$var reg 1 ' pclk $end
$var reg 1 ( pclk_en $end
$var reg 1 ) penable $end
$var reg 1 * prst $end
$var reg 1 + psel $end
$var reg 32 , pwdata [31:0] $end
$var reg 1 - pwrite $end
$var reg 1 . rst_done $end
$var reg 1 / sim_done $end
$scope function apb_print $end
$var integer 32 0 sev [31:0] $end
$var integer 32 1 verbosity [31:0] $end
$upscope $end
$scope module uut $end
$var wire 1 2 g_clk $end
$var wire 32 3 paddr [31:0] $end
$var wire 1 ' pclk $end
$var wire 1 ( pclk_en $end
$var wire 1 ) penable $end
$var wire 1 * prst $end
$var wire 1 + psel $end
$var wire 32 4 pwdata [31:0] $end
$var wire 1 - pwrite $end
$var wire 1 5 slv0_ready $end
$var wire 1 6 slv_wr_rd_en $end
$var wire 2 7 slv_cs [1:0] $end
$var wire 1 8 slv1_ready $end
$var wire 32 9 rif_data_out [31:0] $end
$var wire 1 ! pslverror $end
$var wire 1 " pready $end
$var wire 32 : prdata [31:0] $end
$var wire 8 ; mem_int_addr [7:0] $end
$var wire 32 < mem_data_out [31:0] $end
$var reg 2 = cnt [-1:0] $end
$var reg 2 > cstate [1:0] $end
$var reg 2 ? nstate [1:0] $end
$scope module u_apb_decoder $end
$var wire 32 @ dec_mst_addr [31:0] $end
$var wire 1 ) dec_mst_cs $end
$var wire 1 - dec_mst_wr_rd_en $end
$var wire 1 5 dec_slv0_ready $end
$var wire 1 6 dec_slv_wr_rd_en $end
$var wire 2 A dec_slv_cs [1:0] $end
$var wire 1 8 dec_slv1_ready $end
$var wire 32 B dec_slv1_rd_data [31:0] $end
$var wire 32 C dec_slv0_rd_data [31:0] $end
$var reg 32 D dec_mst_rdata [31:0] $end
$var reg 1 " dec_slv_ready $end
$var reg 2 E internal_decode [1:0] $end
$scope begin decoder_logic $end
$upscope $end
$scope begin rd_data_selector $end
$upscope $end
$scope begin ready_selector $end
$upscope $end
$upscope $end
$scope module u_apb_mem $end
$var wire 8 F maddr [7:0] $end
$var wire 1 * mem_ares $end
$var wire 1 G mem_cs $end
$var wire 1 5 mem_ready $end
$var wire 1 6 mem_wr_en $end
$var wire 32 H mwdata [31:0] $end
$var reg 32 I mrdata [31:0] $end
$scope begin mem_rd_wr_logic $end
$scope begin init_memory $end
$scope begin $ivl_for_loop1 $end
$var integer 32 J i [31:0] $end
$upscope $end
$upscope $end
$upscope $end
$upscope $end
$scope module u_apb_rif $end
$var wire 1 K rd_rq $end
$var wire 32 L rif_addr [31:0] $end
$var wire 1 * rif_arst $end
$var wire 1 ' rif_clk $end
$var wire 1 M rif_cs $end
$var wire 1 ! rif_error $end
$var wire 32 N rif_wdata [31:0] $end
$var wire 1 6 rif_write $end
$var wire 1 O wr_rq $end
$var wire 1 8 rif_ready $end
$var wire 32 P reg_dec [31:0] $end
$var reg 32 Q Data_1 [31:0] $end
$var reg 32 R Data_2 [31:0] $end
$var reg 32 S Data_3 [31:0] $end
$var reg 32 T Status_1 [31:0] $end
$var reg 32 U Status_2 [31:0] $end
$var reg 32 V Status_3 [31:0] $end
$var reg 3 W Write_Reg_En [2:0] $end
$var reg 1 X error_handler $end
$var reg 32 Y reg_dec_dly [31:0] $end
$var reg 2 Z regsistered_request [1:0] $end
$var reg 32 [ rif_rdata [31:0] $end
$scope begin proc_reg $end
$scope begin reg_decoder $end
$upscope $end
$upscope $end
$scope begin proc_status $end
$upscope $end
$scope begin request_reg $end
$upscope $end
$upscope $end
$scope begin proc_fsm $end
$scope begin idle_state $end
$upscope $end
$scope begin read_phase $end
$upscope $end
$scope begin setup_phase $end
$scope begin count_wait $end
$upscope $end
$scope begin no_count $end
$upscope $end
$upscope $end
$scope begin write_phase $end
$upscope $end
$upscope $end
$scope begin state_change $end
$upscope $end
$upscope $end
$scope begin $ivl_for_loop0 $end
$var integer 32 \ i [31:0] $end
$upscope $end
$scope task apb_rd $end
$var reg 32 ] addr [31:0] $end
$var reg 32 ^ rdata [31:0] $end
$upscope $end
$scope task apb_wr $end
$var reg 32 _ addr [31:0] $end
$var reg 32 ` wdata [31:0] $end
$upscope $end
$upscope $end
$enddefinitions $end
#0
$dumpvars
b0 `
b0 _
b0 ^
b0 ]
b0 \
bx [
bx Z
bx Y
xX
bx W
bx V
bx U
bx T
bx S
bx R
bx Q
b0 P
0O
b0 N
0M
b0 L
0K
b0 J
bx I
b0 H
0G
b11110000 F
b1 E
bx D
bx C
bx B
b0 A
b0 @
b0 ?
b0 >
bx =
bx <
b11110000 ;
bx :
bx 9
x8
b0 7
06
15
b0 4
b0 3
02
b0 1
b0 0
0/
0.
0-
b0 ,
0+
0*
0)
1(
0'
b0 &
b0 %
bx $
bx #
1"
x!
$end
#5
bx1 Z
b0 Y
12
1'
#10
0!
0X
b0 W
b0 S
b0 R
b0 Q
b0 V
b0 U
b0 T
18
b11 Z
b0 =
02
b100000000 J
0'
1*
#15
b1 >
b1 =
b1 ?
12
b100 ,
b100 4
b100 H
b100 N
16
1-
1+
b1 1
b100 `
1'
1.
0*
#20
02
0'
#25
b10 >
b10 =
1O
1M
b1 7
b1 A
b10 ?
12
1)
1'
#30
02
0'
#35
b0 >
b11 =
b100 W
08
b10 Z
0M
0O
b0 7
b0 A
b0 ?
12
06
0-
0)
0+
1'
#40
02
0'
#45
b1 >
b0 =
08
b1 Z
b1 ?
12
b0 ,
b0 4
b0 H
b0 N
1+
1'
#50
02
0'
#55
b11 >
b1 =
18
b11 Z
1K
1M
b1 7
b1 A
b11 ?
12
1)
1'
#60
02
0'
#65
b100 #
b100 :
b100 D
b0 >
b10 =
b100 9
b100 C
b100 [
08
b10 Z
0K
0M
b0 7
b0 A
b0 ?
12
0)
0+
1'
#70
02
0'
#75
b1 >
b11 =
08
b1 Z
b11110110 ;
b11110110 F
b110 P
b1 ?
12
b1010 ,
b1010 4
b1010 H
b1010 N
16
1-
b11000 &
b11000 3
b11000 @
b11000 L
1+
b1010 `
b11000 _
b100 $
b100 ^
1'
#80
02
0'
#85
b10 >
b0 =
18
b11 Z
b110 Y
1O
1M
b1 7
b1 A
b10 ?
12
1)
1'
#90
02
0'
#95
b0 >
b1 =
b1010 S
08
b10 Z
0M
0O
b0 7
b0 A
b0 ?
12
06
0-
0)
0+
1'
#100
02
0'
#105
b1 >
b10 =
b1 V
08
b1 Z
b1 ?
12
b0 ,
b0 4
b0 H
b0 N
1+
b11000 ]
1'
#110
02
0'
#115
b11 >
b11 =
18
b11 Z
1K
1M
b1 7
b1 A
b11 ?
12
1)
1'
#120
02
0'
#125
b1010 #
b1010 :
b1010 D
b0 >
b0 =
b1010 9
b1010 C
b1010 [
08
b10 Z
0K
0M
b0 7
b0 A
b0 ?
12
0)
0+
1'
#130
02
0'
#135
b1 >
b1 =
08
b1 Z
b11110001 ;
b11110001 F
b1 P
b1 ?
12
b100 &
b100 3
b100 @
b100 L
1+
b100 ]
b1010 $
b1010 ^
1'
#140
02
0'
#145
b11 >
b10 =
18
b11 Z
b1 Y
1K
1M
b1 7
b1 A
b11 ?
12
1)
1'
#150
02
0'
#155
b0 #
b0 :
b0 D
b0 >
b11 =
b0 9
b0 C
b0 [
08
b10 Z
0K
0M
b0 7
b0 A
b0 ?
12
0)
0+
1'
#160
02
0'
#165
b1 >
b0 =
08
b1 Z
b11110100 ;
b11110100 F
b100 P
b1 ?
12
b1010 ,
b1010 4
b1010 H
b1010 N
16
1-
b10000 &
b10000 3
b10000 @
b10000 L
1+
b10000 _
b0 $
b0 ^
1'
#170
02
0'
#175
b10 >
b1 =
18
b11 Z
b100 Y
1O
1M
b1 7
b1 A
b10 ?
12
1)
1'
#180
02
0'
#185
b0 >
b10 =
1!
1X
b1 T
08
b10 Z
0M
0O
b0 7
b0 A
b0 ?
12
06
0-
0)
0+
1'
#190
02
0'
#195
b1 >
b11 =
08
b1 Z
b1 ?
12
b0 ,
b0 4
b0 H
b0 N
1+
b10000 ]
1'
#200
02
0'
#205
b11 >
b0 =
18
b11 Z
1K
1M
b1 7
b1 A
b11 ?
12
1)
1'
#210
02
0'
#215
b0 >
b1 =
0!
0X
08
b10 Z
0K
0M
b0 7
b0 A
b0 ?
12
0)
0+
1'
#220
02
0'
#225
b1 >
b10 =
08
b1 Z
b0 ;
b0 F
0"
bx #
bx :
bx D
b10000 P
b10 E
b1 ?
12
b1001010 ,
b1001010 4
b1001010 H
b1001010 N
16
1-
b1000000 &
b1000000 3
b1000000 @
b1000000 L
1+
b1001010 `
b1000000 _
b1000000 \
1'
#230
02
0'
#235
1"
b10 >
b11 =
1!
1X
18
b11 Z
b10000 Y
1G
b10 7
b10 A
b10 ?
12
1)
1'
#240
02
0'
#245
b0 >
b0 =
0G
b0 7
b0 A
b1001010 #
b1001010 :
b1001010 D
b1001010 <
b1001010 B
b1001010 I
b0 ?
12
06
0-
0)
0+
1'
#250
02
0'
#255
b1 >
b1 =
b1 ?
12
b0 ,
b0 4
b0 H
b0 N
1+
b1000000 ]
1'
#260
02
0'
#265
b11 >
b10 =
1G
b10 7
b10 A
b11 ?
12
1)
1'
#270
02
0'
#275
b0 >
b11 =
0G
b0 7
b0 A
b0 ?
12
0)
0+
1'
#280
02
0'
#285
b1 >
b0 =
b1 ;
b1 F
b10001 P
b1 ?
12
b1001110 ,
b1001110 4
b1001110 H
b1001110 N
16
1-
b1000100 &
b1000100 3
b1000100 @
b1000100 L
1+
b1001110 `
b1000100 _
b1000100 \
b1001010 $
b1001010 ^
1'
#290
02
0'
#295
b10 >
b1 =
b10001 Y
1G
b10 7
b10 A
b10 ?
12
1)
1'
#300
02
0'
#305
b0 >
b10 =
0G
b0 7
b0 A
b1001110 #
b1001110 :
b1001110 D
b1001110 <
b1001110 B
b1001110 I
b0 ?
12
06
0-
0)
0+
1'
#310
02
0'
#315
b1 >
b11 =
b1 ?
12
b0 ,
b0 4
b0 H
b0 N
1+
b1000100 ]
1'
#320
02
0'
#325
b11 >
b0 =
1G
b10 7
b10 A
b11 ?
12
1)
1'
#330
02
0'
#335
b0 >
b1 =
0G
b0 7
b0 A
b0 ?
12
0)
0+
1'
#340
02
0'
#345
b1 >
b10 =
b10 ;
b10 F
b10010 P
b1 ?
12
b1010010 ,
b1010010 4
b1010010 H
b1010010 N
16
1-
b1001000 &
b1001000 3
b1001000 @
b1001000 L
1+
b1010010 `
b1001000 _
b1001000 \
b1001110 $
b1001110 ^
1'
#350
02
0'
#355
b10 >
b11 =
b10010 Y
1G
b10 7
b10 A
b10 ?
12
1)
1'
#360
02
0'
#365
b0 >
b0 =
0G
b0 7
b0 A
b1010010 #
b1010010 :
b1010010 D
b1010010 <
b1010010 B
b1010010 I
b0 ?
12
06
0-
0)
0+
1'
#370
02
0'
#375
b1 >
b1 =
b1 ?
12
b0 ,
b0 4
b0 H
b0 N
1+
b1001000 ]
1'
#380
02
0'
#385
b11 >
b10 =
1G
b10 7
b10 A
b11 ?
12
1)
1'
#390
02
0'
#395
b0 >
b11 =
0G
b0 7
b0 A
b0 ?
12
0)
0+
1'
#400
02
0'
#405
b1 >
b0 =
b11 ;
b11 F
b10011 P
b1 ?
12
b1010110 ,
b1010110 4
b1010110 H
b1010110 N
16
1-
b1001100 &
b1001100 3
b1001100 @
b1001100 L
1+
b1010110 `
b1001100 _
b1001100 \
b1010010 $
b1010010 ^
1'
#410
02
0'
#415
b10 >
b1 =
b10011 Y
1G
b10 7
b10 A
b10 ?
12
1)
1'
#420
02
0'
#425
b0 >
b10 =
0G
b0 7
b0 A
b1010110 #
b1010110 :
b1010110 D
b1010110 <
b1010110 B
b1010110 I
b0 ?
12
06
0-
0)
0+
1'
#430
02
0'
#435
b1 >
b11 =
b1 ?
12
b0 ,
b0 4
b0 H
b0 N
1+
b1001100 ]
1'
#440
02
0'
#445
b11 >
b0 =
1G
b10 7
b10 A
b11 ?
12
1)
1'
#450
02
0'
#455
b0 >
b1 =
0G
b0 7
b0 A
b0 ?
12
0)
0+
1'
#460
02
0'
#465
b1 >
b10 =
b100 ;
b100 F
b10100 P
b1 ?
12
b1011010 ,
b1011010 4
b1011010 H
b1011010 N
16
1-
b1010000 &
b1010000 3
b1010000 @
b1010000 L
1+
b1011010 `
b1010000 _
b1010000 \
b1010110 $
b1010110 ^
1'
#470
02
0'
#475
b10 >
b11 =
b10100 Y
1G
b10 7
b10 A
b10 ?
12
1)
1'
#480
02
0'
#485
b0 >
b0 =
0G
b0 7
b0 A
b1011010 #
b1011010 :
b1011010 D
b1011010 <
b1011010 B
b1011010 I
b0 ?
12
06
0-
0)
0+
1'
#490
02
0'
#495
b1 >
b1 =
b1 ?
12
b0 ,
b0 4
b0 H
b0 N
1+
b1010000 ]
1'
#500
02
0'
#505
b11 >
b10 =
1G
b10 7
b10 A
b11 ?
12
1)
1'
#510
02
0'
#515
b0 >
b11 =
0G
b0 7
b0 A
b0 ?
12
0)
0+
1'
#520
02
0'
#525
b1 >
b0 =
b101 ;
b101 F
b10101 P
b1 ?
12
b1011110 ,
b1011110 4
b1011110 H
b1011110 N
16
1-
b1010100 &
b1010100 3
b1010100 @
b1010100 L
1+
b1011110 `
b1010100 _
b1010100 \
b1011010 $
b1011010 ^
1'
#530
02
0'
#535
b10 >
b1 =
b10101 Y
1G
b10 7
b10 A
b10 ?
12
1)
1'
#540
02
0'
#545
b0 >
b10 =
0G
b0 7
b0 A
b1011110 #
b1011110 :
b1011110 D
b1011110 <
b1011110 B
b1011110 I
b0 ?
12
06
0-
0)
0+
1'
#550
02
0'
#555
b1 >
b11 =
b1 ?
12
b0 ,
b0 4
b0 H
b0 N
1+
b1010100 ]
1'
#560
02
0'
#565
b11 >
b0 =
1G
b10 7
b10 A
b11 ?
12
1)
1'
#570
02
0'
#575
b0 >
b1 =
0G
b0 7
b0 A
b0 ?
12
0)
0+
1'
#580
02
0'
#585
b1 >
b10 =
b110 ;
b110 F
b10110 P
b1 ?
12
b1100010 ,
b1100010 4
b1100010 H
b1100010 N
16
1-
b1011000 &
b1011000 3
b1011000 @
b1011000 L
1+
b1100010 `
b1011000 _
b1011000 \
b1011110 $
b1011110 ^
1'
#590
02
0'
#595
b10 >
b11 =
b10110 Y
1G
b10 7
b10 A
b10 ?
12
1)
1'
#600
02
0'
#605
b0 >
b0 =
0G
b0 7
b0 A
b1100010 #
b1100010 :
b1100010 D
b1100010 <
b1100010 B
b1100010 I
b0 ?
12
06
0-
0)
0+
1'
#610
02
0'
#615
b1 >
b1 =
b1 ?
12
b0 ,
b0 4
b0 H
b0 N
1+
b1011000 ]
1'
#620
02
0'
#625
b11 >
b10 =
1G
b10 7
b10 A
b11 ?
12
1)
1'
#630
02
0'
#635
b0 >
b11 =
0G
b0 7
b0 A
b0 ?
12
0)
0+
1'
#640
02
0'
#645
b1 >
b0 =
b111 ;
b111 F
b10111 P
b1 ?
12
b1100110 ,
b1100110 4
b1100110 H
b1100110 N
16
1-
b1011100 &
b1011100 3
b1011100 @
b1011100 L
1+
b1100110 `
b1011100 _
b1011100 \
b1100010 $
b1100010 ^
1'
#650
02
0'
#655
b10 >
b1 =
b10111 Y
1G
b10 7
b10 A
b10 ?
12
1)
1'
#660
02
0'
#665
b0 >
b10 =
0G
b0 7
b0 A
b1100110 #
b1100110 :
b1100110 D
b1100110 <
b1100110 B
b1100110 I
b0 ?
12
06
0-
0)
0+
1'
#670
02
0'
#675
b1 >
b11 =
b1 ?
12
b0 ,
b0 4
b0 H
b0 N
1+
b1011100 ]
1'
#680
02
0'
#685
b11 >
b0 =
1G
b10 7
b10 A
b11 ?
12
1)
1'
#690
02
0'
#695
b0 >
b1 =
0G
b0 7
b0 A
b0 ?
12
0)
0+
1'
#700
02
0'
#705
b1 >
b10 =
b1000 ;
b1000 F
b11000 P
b1 ?
12
b1101010 ,
b1101010 4
b1101010 H
b1101010 N
16
1-
b1100000 &
b1100000 3
b1100000 @
b1100000 L
1+
b1101010 `
b1100000 _
b1100000 \
b1100110 $
b1100110 ^
1'
#710
02
0'
#715
b10 >
b11 =
b11000 Y
1G
b10 7
b10 A
b10 ?
12
1)
1'
#720
02
0'
#725
b0 >
b0 =
0G
b0 7
b0 A
b1101010 #
b1101010 :
b1101010 D
b1101010 <
b1101010 B
b1101010 I
b0 ?
12
06
0-
0)
0+
1'
#730
02
0'
#735
b1 >
b1 =
b1 ?
12
b0 ,
b0 4
b0 H
b0 N
1+
b1100000 ]
1'
#740
02
0'
#745
b11 >
b10 =
1G
b10 7
b10 A
b11 ?
12
1)
1'
#750
02
0'
#755
b0 >
b11 =
0G
b0 7
b0 A
b0 ?
12
0)
0+
1'
#760
02
0'
#765
b1 >
b0 =
b1001 ;
b1001 F
b11001 P
b1 ?
12
b1101110 ,
b1101110 4
b1101110 H
b1101110 N
16
1-
b1100100 &
b1100100 3
b1100100 @
b1100100 L
1+
b1101110 `
b1100100 _
b1100100 \
b1101010 $
b1101010 ^
1'
#770
02
0'
#775
b10 >
b1 =
b11001 Y
1G
b10 7
b10 A
b10 ?
12
1)
1'
#780
02
0'
#785
b0 >
b10 =
0G
b0 7
b0 A
b1101110 #
b1101110 :
b1101110 D
b1101110 <
b1101110 B
b1101110 I
b0 ?
12
06
0-
0)
0+
1'
#790
02
0'
#795
b1 >
b11 =
b1 ?
12
b0 ,
b0 4
b0 H
b0 N
1+
b1100100 ]
1'
#800
02
0'
#805
b11 >
b0 =
1G
b10 7
b10 A
b11 ?
12
1)
1'
#810
02
0'
#815
b0 >
b1 =
0G
b0 7
b0 A
b0 ?
12
0)
0+
1'
#820
02
0'
#825
b1 >
b10 =
b1010 ;
b1010 F
b11010 P
b1 ?
12
b1110010 ,
b1110010 4
b1110010 H
b1110010 N
16
1-
b1101000 &
b1101000 3
b1101000 @
b1101000 L
1+
b1110010 `
b1101000 _
b1101000 \
b1101110 $
b1101110 ^
1'
#830
02
0'
#835
b10 >
b11 =
b11010 Y
1G
b10 7
b10 A
b10 ?
12
1)
1'
#840
02
0'
#845
b0 >
b0 =
0G
b0 7
b0 A
b1110010 #
b1110010 :
b1110010 D
b1110010 <
b1110010 B
b1110010 I
b0 ?
12
06
0-
0)
0+
1'
#850
02
0'
#855
b1 >
b1 =
b1 ?
12
b0 ,
b0 4
b0 H
b0 N
1+
b1101000 ]
1'
#860
02
0'
#865
b11 >
b10 =
1G
b10 7
b10 A
b11 ?
12
1)
1'
#870
02
0'
#875
b0 >
b11 =
0G
b0 7
b0 A
b0 ?
12
0)
0+
1'
#880
02
0'
#885
b1 >
b0 =
b1011 ;
b1011 F
b11011 P
b1 ?
12
b1110110 ,
b1110110 4
b1110110 H
b1110110 N
16
1-
b1101100 &
b1101100 3
b1101100 @
b1101100 L
1+
b1110110 `
b1101100 _
b1101100 \
b1110010 $
b1110010 ^
1'
#890
02
0'
#895
b10 >
b1 =
b11011 Y
1G
b10 7
b10 A
b10 ?
12
1)
1'
#900
02
0'
#905
b0 >
b10 =
0G
b0 7
b0 A
b1110110 #
b1110110 :
b1110110 D
b1110110 <
b1110110 B
b1110110 I
b0 ?
12
06
0-
0)
0+
1'
#910
02
0'
#915
b1 >
b11 =
b1 ?
12
b0 ,
b0 4
b0 H
b0 N
1+
b1101100 ]
1'
#920
02
0'
#925
b11 >
b0 =
1G
b10 7
b10 A
b11 ?
12
1)
1'
#930
02
0'
#935
b0 >
b1 =
0G
b0 7
b0 A
b0 ?
12
0)
0+
1'
#940
02
0'
#945
b1 >
b10 =
b1100 ;
b1100 F
b11100 P
b1 ?
12
b1111010 ,
b1111010 4
b1111010 H
b1111010 N
16
1-
b1110000 &
b1110000 3
b1110000 @
b1110000 L
1+
b1111010 `
b1110000 _
b1110000 \
b1110110 $
b1110110 ^
1'
#950
02
0'
#955
b10 >
b11 =
b11100 Y
1G
b10 7
b10 A
b10 ?
12
1)
1'
#960
02
0'
#965
b0 >
b0 =
0G
b0 7
b0 A
b1111010 #
b1111010 :
b1111010 D
b1111010 <
b1111010 B
b1111010 I
b0 ?
12
06
0-
0)
0+
1'
#970
02
0'
#975
b1 >
b1 =
b1 ?
12
b0 ,
b0 4
b0 H
b0 N
1+
b1110000 ]
1'
#980
02
0'
#985
b11 >
b10 =
1G
b10 7
b10 A
b11 ?
12
1)
1'
#990
02
0'
#995
b0 >
b11 =
0G
b0 7
b0 A
b0 ?
12
0)
0+
1'
#1000
02
0'
#1005
b1 >
b0 =
b1101 ;
b1101 F
b11101 P
b1 ?
12
b1111110 ,
b1111110 4
b1111110 H
b1111110 N
16
1-
b1110100 &
b1110100 3
b1110100 @
b1110100 L
1+
b1111110 `
b1110100 _
b1110100 \
b1111010 $
b1111010 ^
1'
#1010
02
0'
#1015
b10 >
b1 =
b11101 Y
1G
b10 7
b10 A
b10 ?
12
1)
1'
#1020
02
0'
#1025
b0 >
b10 =
0G
b0 7
b0 A
b1111110 #
b1111110 :
b1111110 D
b1111110 <
b1111110 B
b1111110 I
b0 ?
12
06
0-
0)
0+
1'
#1030
02
0'
#1035
b1 >
b11 =
b1 ?
12
b0 ,
b0 4
b0 H
b0 N
1+
b1110100 ]
1'
#1040
02
0'
#1045
b11 >
b0 =
1G
b10 7
b10 A
b11 ?
12
1)
1'
#1050
02
0'
#1055
b0 >
b1 =
0G
b0 7
b0 A
b0 ?
12
0)
0+
1'
#1060
02
0'
#1065
b1 >
b10 =
b1110 ;
b1110 F
b11110 P
b1 ?
12
b10000010 ,
b10000010 4
b10000010 H
b10000010 N
16
1-
b1111000 &
b1111000 3
b1111000 @
b1111000 L
1+
b10000010 `
b1111000 _
b1111000 \
b1111110 $
b1111110 ^
1'
#1070
02
0'
#1075
b10 >
b11 =
b11110 Y
1G
b10 7
b10 A
b10 ?
12
1)
1'
#1080
02
0'
#1085
b0 >
b0 =
0G
b0 7
b0 A
b10000010 #
b10000010 :
b10000010 D
b10000010 <
b10000010 B
b10000010 I
b0 ?
12
06
0-
0)
0+
1'
#1090
02
0'
#1095
b1 >
b1 =
b1 ?
12
b0 ,
b0 4
b0 H
b0 N
1+
b1111000 ]
1'
#1100
02
0'
#1105
b11 >
b10 =
1G
b10 7
b10 A
b11 ?
12
1)
1'
#1110
02
0'
#1115
b0 >
b11 =
0G
b0 7
b0 A
b0 ?
12
0)
0+
1'
#1120
02
0'
#1125
b1 >
b0 =
b1111 ;
b1111 F
b11111 P
b1 ?
12
b10000110 ,
b10000110 4
b10000110 H
b10000110 N
16
1-
b1111100 &
b1111100 3
b1111100 @
b1111100 L
1+
b10000110 `
b1111100 _
b1111100 \
b10000010 $
b10000010 ^
1'
#1130
02
0'
#1135
b10 >
b1 =
b11111 Y
1G
b10 7
b10 A
b10 ?
12
1)
1'
#1140
02
0'
#1145
b0 >
b10 =
0G
b0 7
b0 A
b10000110 #
b10000110 :
b10000110 D
b10000110 <
b10000110 B
b10000110 I
b0 ?
12
06
0-
0)
0+
1'
#1150
02
0'
#1155
b1 >
b11 =
b1 ?
12
b0 ,
b0 4
b0 H
b0 N
1+
b1111100 ]
1'
#1160
02
0'
#1165
b11 >
b0 =
1G
b10 7
b10 A
b11 ?
12
1)
1'
#1170
02
0'
#1175
b0 >
b1 =
0G
b0 7
b0 A
b0 ?
12
0)
0+
1'
#1180
02
0'
#1185
b1 >
b10 =
b10000 ;
b10000 F
b100000 P
b1 ?
12
b10001010 ,
b10001010 4
b10001010 H
b10001010 N
16
1-
b10000000 &
b10000000 3
b10000000 @
b10000000 L
1+
b10001010 `
b10000000 _
b10000000 \
b10000110 $
b10000110 ^
1'
#1190
02
0'
#1195
b10 >
b11 =
b100000 Y
1G
b10 7
b10 A
b10 ?
12
1)
1'
#1200
02
0'
#1205
b0 >
b0 =
0G
b0 7
b0 A
b10001010 #
b10001010 :
b10001010 D
b10001010 <
b10001010 B
b10001010 I
b0 ?
12
06
0-
0)
0+
1'
#1210
02
0'
#1215
b1 >
b1 =
b1 ?
12
b0 ,
b0 4
b0 H
b0 N
1+
b10000000 ]
1'
#1220
02
0'
#1225
b11 >
b10 =
1G
b10 7
b10 A
b11 ?
12
1)
1'
#1230
02
0'
#1235
b0 >
b11 =
0G
b0 7
b0 A
b0 ?
12
0)
0+
1'
#1240
02
0'
#1245
b1 >
b0 =
b10001 ;
b10001 F
b100001 P
b1 ?
12
b10001110 ,
b10001110 4
b10001110 H
b10001110 N
16
1-
b10000100 &
b10000100 3
b10000100 @
b10000100 L
1+
b10001110 `
b10000100 _
b10000100 \
b10001010 $
b10001010 ^
1'
#1250
02
0'
#1255
b10 >
b1 =
b100001 Y
1G
b10 7
b10 A
b10 ?
12
1)
1'
#1260
02
0'
#1265
b0 >
b10 =
0G
b0 7
b0 A
b10001110 #
b10001110 :
b10001110 D
b10001110 <
b10001110 B
b10001110 I
b0 ?
12
06
0-
0)
0+
1'
#1270
02
0'
#1275
b1 >
b11 =
b1 ?
12
b0 ,
b0 4
b0 H
b0 N
1+
b10000100 ]
1'
#1280
02
0'
#1285
b11 >
b0 =
1G
b10 7
b10 A
b11 ?
12
1)
1'
#1290
02
0'
#1295
b0 >
b1 =
0G
b0 7
b0 A
b0 ?
12
0)
0+
1'
#1300
02
0'
#1305
b1 >
b10 =
b10010 ;
b10010 F
b100010 P
b1 ?
12
b10010010 ,
b10010010 4
b10010010 H
b10010010 N
16
1-
b10001000 &
b10001000 3
b10001000 @
b10001000 L
1+
b10010010 `
b10001000 _
b10001000 \
b10001110 $
b10001110 ^
1'
#1310
02
0'
#1315
b10 >
b11 =
b100010 Y
1G
b10 7
b10 A
b10 ?
12
1)
1'
#1320
02
0'
#1325
b0 >
b0 =
0G
b0 7
b0 A
b10010010 #
b10010010 :
b10010010 D
b10010010 <
b10010010 B
b10010010 I
b0 ?
12
06
0-
0)
0+
1'
#1330
02
0'
#1335
b1 >
b1 =
b1 ?
12
b0 ,
b0 4
b0 H
b0 N
1+
b10001000 ]
1'
#1340
02
0'
#1345
b11 >
b10 =
1G
b10 7
b10 A
b11 ?
12
1)
1'
#1350
02
0'
#1355
b0 >
b11 =
0G
b0 7
b0 A
b0 ?
12
0)
0+
1'
#1360
02
0'
#1365
b1 >
b0 =
b10011 ;
b10011 F
b100011 P
b1 ?
12
b10010110 ,
b10010110 4
b10010110 H
b10010110 N
16
1-
b10001100 &
b10001100 3
b10001100 @
b10001100 L
1+
b10010110 `
b10001100 _
b10001100 \
b10010010 $
b10010010 ^
1'
#1370
02
0'
#1375
b10 >
b1 =
b100011 Y
1G
b10 7
b10 A
b10 ?
12
1)
1'
#1380
02
0'
#1385
b0 >
b10 =
0G
b0 7
b0 A
b10010110 #
b10010110 :
b10010110 D
b10010110 <
b10010110 B
b10010110 I
b0 ?
12
06
0-
0)
0+
1'
#1390
02
0'
#1395
b1 >
b11 =
b1 ?
12
b0 ,
b0 4
b0 H
b0 N
1+
b10001100 ]
1'
#1400
02
0'
#1405
b11 >
b0 =
1G
b10 7
b10 A
b11 ?
12
1)
1'
#1410
02
0'
#1415
b0 >
b1 =
0G
b0 7
b0 A
b0 ?
12
0)
0+
1'
#1420
02
0'
#1425
b1 >
b10 =
b10100 ;
b10100 F
b100100 P
b1 ?
12
b10011010 ,
b10011010 4
b10011010 H
b10011010 N
16
1-
b10010000 &
b10010000 3
b10010000 @
b10010000 L
1+
b10011010 `
b10010000 _
b10010000 \
b10010110 $
b10010110 ^
1'
#1430
02
0'
#1435
b10 >
b11 =
b100100 Y
1G
b10 7
b10 A
b10 ?
12
1)
1'
#1440
02
0'
#1445
b0 >
b0 =
0G
b0 7
b0 A
b10011010 #
b10011010 :
b10011010 D
b10011010 <
b10011010 B
b10011010 I
b0 ?
12
06
0-
0)
0+
1'
#1450
02
0'
#1455
b1 >
b1 =
b1 ?
12
b0 ,
b0 4
b0 H
b0 N
1+
b10010000 ]
1'
#1460
02
0'
#1465
b11 >
b10 =
1G
b10 7
b10 A
b11 ?
12
1)
1'
#1470
02
0'
#1475
b0 >
b11 =
0G
b0 7
b0 A
b0 ?
12
0)
0+
1'
#1480
02
0'
#1485
b1 >
b0 =
b10101 ;
b10101 F
b100101 P
b1 ?
12
b10011110 ,
b10011110 4
b10011110 H
b10011110 N
16
1-
b10010100 &
b10010100 3
b10010100 @
b10010100 L
1+
b10011110 `
b10010100 _
b10010100 \
b10011010 $
b10011010 ^
1'
#1490
02
0'
#1495
b10 >
b1 =
b100101 Y
1G
b10 7
b10 A
b10 ?
12
1)
1'
#1500
02
0'
#1505
b0 >
b10 =
0G
b0 7
b0 A
b10011110 #
b10011110 :
b10011110 D
b10011110 <
b10011110 B
b10011110 I
b0 ?
12
06
0-
0)
0+
1'
#1510
02
0'
#1515
b1 >
b11 =
b1 ?
12
b0 ,
b0 4
b0 H
b0 N
1+
b10010100 ]
1'
#1520
02
0'
#1525
b11 >
b0 =
1G
b10 7
b10 A
b11 ?
12
1)
1'
#1530
02
0'
#1535
b0 >
b1 =
0G
b0 7
b0 A
b0 ?
12
0)
0+
1'
#1540
02
0'
#1545
b1 >
b10 =
b10110 ;
b10110 F
b100110 P
b1 ?
12
b10100010 ,
b10100010 4
b10100010 H
b10100010 N
16
1-
b10011000 &
b10011000 3
b10011000 @
b10011000 L
1+
b10100010 `
b10011000 _
b10011000 \
b10011110 $
b10011110 ^
1'
#1550
02
0'
#1555
b10 >
b11 =
b100110 Y
1G
b10 7
b10 A
b10 ?
12
1)
1'
#1560
02
0'
