Verification/PYUVM/apb_slave_controller.vcd
$date
	Tue Jan  4 22:53:11 2022
$end
$version
	Icarus Verilog
$end
$timescale
	1ns
$end
$scope module apb_slave_controller $end
$var wire 1 ! g_clk $end
$var wire 32 " paddr [31:0] $end
$var wire 1 # pclk $end
$var wire 1 $ pclk_en $end
$var wire 1 % penable $end
$var wire 1 & prst $end
$var wire 1 ' psel $end
$var wire 32 ( pwdata [31:0] $end
$var wire 1 ) pwrite $end
$var wire 32 * write_enable_out [31:0] $end
$var wire 2 + slvx_ready [1:0] $end
$var wire 1 , slv_wr_rd_en $end
$var wire 2 - slv_cs [1:0] $end
$var wire 1 . rif_error_out $end
$var wire 32 / rif_data_out [31:0] $end
$var wire 1 0 pready $end
$var wire 32 1 prdata [31:0] $end
$var wire 8 2 mem_int_addr [7:0] $end
$var wire 32 3 mem_data_out [31:0] $end
$var wire 32 4 data_3_out [31:0] $end
$var wire 32 5 data_2_out [31:0] $end
$var wire 32 6 data_1_out [31:0] $end
$var wire 2 7 address_selector [1:0] $end
$var reg 1 8 cnt $end
$var reg 32 9 data_status_1_in [31:0] $end
$var reg 32 : data_status_2_in [31:0] $end
$var reg 32 ; data_status_3_in [31:0] $end
$var reg 1 < pslverror $end
$var reg 2 = cstate [1:0] $end
$var reg 2 > nstate [1:0] $end
$scope begin genblk1[0] $end
$scope begin genblk2 $end
$upscope $end
$upscope $end
$scope begin genblk1[1] $end
$scope begin genblk4 $end
$upscope $end
$upscope $end
$scope begin genblk1[2] $end
$scope begin genblk6 $end
$upscope $end
$upscope $end
$scope begin genblk1[3] $end
$scope begin genblk8 $end
$upscope $end
$upscope $end
$scope begin genblk1[4] $end
$scope begin genblk10 $end
$upscope $end
$upscope $end
$scope begin genblk1[5] $end
$scope begin genblk12 $end
$upscope $end
$upscope $end
$scope begin genblk1[6] $end
$scope begin genblk14 $end
$upscope $end
$upscope $end
$scope begin genblk1[7] $end
$scope begin genblk16 $end
$upscope $end
$upscope $end
$scope module u_apb_decoder $end
$var wire 32 ? dec_mst_addr [31:0] $end
$var wire 1 % dec_mst_cs $end
$var wire 1 ) dec_mst_wr_rd_en $end
$var wire 1 , dec_slv_wr_rd_en $end
$var wire 32 @ dec_slvx_rd_data_0 [31:0] $end
$var wire 32 A dec_slvx_rd_data_1 [31:0] $end
$var wire 32 B dec_slvx_rd_data_2 [31:0] $end
$var wire 32 C dec_slvx_rd_data_3 [31:0] $end
$var wire 32 D dec_slvx_rd_data_4 [31:0] $end
$var wire 32 E dec_slvx_rd_data_5 [31:0] $end
$var wire 32 F dec_slvx_rd_data_6 [31:0] $end
$var wire 32 G dec_slvx_rd_data_7 [31:0] $end
$var wire 1 H dec_slvx_ready_0 $end
$var wire 1 I dec_slvx_ready_1 $end
$var wire 1 J dec_slvx_ready_2 $end
$var wire 1 K dec_slvx_ready_3 $end
$var wire 1 L dec_slvx_ready_4 $end
$var wire 1 M dec_slvx_ready_5 $end
$var wire 1 N dec_slvx_ready_6 $end
$var wire 1 O dec_slvx_ready_7 $end
$var wire 2 P dec_slv_cs [1:0] $end
$var reg 32 Q dec_mst_rdata [31:0] $end
$var reg 1 0 dec_slv_ready $end
$var reg 9 R internal_decode [8:0] $end
$scope begin genblk1[0] $end
$upscope $end
$scope begin genblk1[1] $end
$upscope $end
$scope begin decoder_logic $end
$upscope $end
$upscope $end
$scope module u_apb_mem $end
$var wire 8 S maddr [7:0] $end
$var wire 1 & mem_ares $end
$var wire 1 T mem_cs $end
$var wire 1 U mem_ready $end
$var wire 1 , mem_wr_en $end
$var wire 32 V mwdata [31:0] $end
$var reg 32 W mrdata [31:0] $end
$scope begin mem_rd_wr_logic $end
$scope begin init_memory $end
$scope begin $ivl_for_loop0 $end
$var integer 32 X i [31:0] $end
$upscope $end
$upscope $end
$upscope $end
$upscope $end
$scope module u_apb_rif $end
$var wire 32 Y data_status_1 [31:0] $end
$var wire 32 Z data_status_1_in [31:0] $end
$var wire 32 [ data_status_2 [31:0] $end
$var wire 32 \ data_status_2_in [31:0] $end
$var wire 32 ] data_status_3 [31:0] $end
$var wire 32 ^ data_status_3_in [31:0] $end
$var wire 1 _ rd_rq $end
$var wire 32 ` rif_addr [31:0] $end
$var wire 1 & rif_arst $end
$var wire 1 # rif_clk $end
$var wire 1 a rif_cs $end
$var wire 32 b rif_wdata [31:0] $end
$var wire 1 , rif_write $end
$var wire 1 c wr_rq $end
$var wire 32 d write_enable_out [31:0] $end
$var wire 1 e rif_ready $end
$var wire 1 . rif_error $end
$var wire 32 f reg_dec [31:0] $end
$var wire 32 g data_3_out [31:0] $end
$var wire 32 h data_2_out [31:0] $end
$var wire 32 i data_1_out [31:0] $end
$var reg 32 j data_1 [31:0] $end
$var reg 1 k data_1_dec $end
$var reg 32 l data_2 [31:0] $end
$var reg 1 m data_2_dec $end
$var reg 32 n data_3 [31:0] $end
$var reg 1 o data_3_dec $end
$var reg 1 p data_status_1_dec $end
$var reg 1 q data_status_2_dec $end
$var reg 1 r data_status_3_dec $end
$var reg 1 s error_access $end
$var reg 1 t error_handler $end
$var reg 32 u reg_dec_dly [31:0] $end
$var reg 2 v regsistered_request [1:0] $end
$var reg 32 w rif_rdata [31:0] $end
$var reg 32 x write_enable [31:0] $end
$var reg 1 y write_enable_dec $end
$scope begin addres_decoding $end
$upscope $end
$scope begin proc_reg $end
$scope begin reg_decoder $end
$upscope $end
$upscope $end
$scope begin request_reg $end
$upscope $end
$upscope $end
$scope begin proc_error $end
$upscope $end
$scope begin proc_fsm $end
$scope begin idle_state $end
$upscope $end
$scope begin read_phase $end
$upscope $end
$scope begin setup_phase $end
$scope begin count_wait $end
$upscope $end
$scope begin no_count $end
$upscope $end
$upscope $end
$scope begin write_phase $end
$upscope $end
$upscope $end
$scope begin state_change $end
$upscope $end
$upscope $end
$enddefinitions $end
#0
$dumpvars
0y
bx x
bx w
bx1 v
b0zzzzzzzzzzzzzzzzzzzzzzzzzzzzzz u
xt
0s
0r
0q
0p
0o
bx n
0m
bx l
1k
bx j
b0 i
b0 h
b0 g
b0 f
xe
b0 d
0c
b0 b
0a
b0 `
0_
b0 ^
b0 ]
b0 \
b0 [
b0 Z
b0 Y
b0 X
bx W
b0 V
1U
0T
b11000000 S
b1 R
bx Q
b0 P
xO
xN
xM
xL
xK
xJ
1I
xH
b0 G
b0 F
b0 E
b0 D
b0 C
b0 B
bx A
bx @
b0 ?
b0 >
b0 =
x<
b0 ;
b0 :
b0 9
x8
b0 7
b0 6
b0 5
b0 4
bx 3
b11000000 2
bx 1
x0
bx /
0.
b0 -
0,
b1x +
b0 *
0)
b0 (
0'
0&
0%
1$
1#
b0 "
1!
$end
#1
0<
0!
0#
#2
10
1H
b11 +
1e
b11 v
b0 u
1!
1#
#3
0!
0#
#4
1!
1#
#5
0!
0#
#6
1!
1#
#7
0!
0#
#8
1!
1#
#9
0!
0#
#10
b0 1
b0 Q
08
b0 n
b0 l
b0 j
b0 @
b0 /
b0 w
b100000000 X
1!
1&
1#
#11
0!
0#
#12
1!
1#
#13
0!
0#
#14
1!
1#
#15
b0 2
b0 S
bx 1
bx Q
b1000000 f
1s
0k
b1 >
b10 R
0!
0&
1'
b100000000 "
b100000000 ?
b100000000 `
1,
1)
b100000000 (
b100000000 V
b100000000 b
0#
#16
1T
b10 -
b10 P
b10 >
1%
1s
b1 =
18
b1000000 u
1!
1#
#17
0!
0#
#18
0T
b0 -
b0 P
b100000000 1
b100000000 Q
b100000000 A
b100000000 3
b100000000 W
b0 >
0'
0%
0,
0)
1s
b10 =
08
1!
1#
#19
0!
0#
#20
b1 >
1'
b0 (
b0 V
b0 b
1s
b0 =
18
1!
1#
#21
0!
0#
#22
1T
b10 -
b10 P
b11 >
1%
1s
b1 =
08
1!
1#
#23
0!
0#
#24
0T
b0 -
b0 P
b0 >
0'
0%
1s
b11 =
18
1!
1#
#25
0!
0#
#26
b1 2
b1 S
b1 7
b1000001 f
b1 >
1'
b100000100 "
b100000100 ?
b100000100 `
1,
1)
b100000100 (
b100000100 V
b100000100 b
1s
b0 =
08
1!
1#
#27
0!
0#
#28
1T
b10 -
b10 P
b10 >
1%
1s
b1 =
18
b1000001 u
1!
1#
#29
0!
0#
#30
0T
b0 -
b0 P
b100000100 1
b100000100 Q
b100000100 A
b100000100 3
b100000100 W
b0 >
0'
0%
0,
0)
1s
b10 =
08
1!
1#
#31
0!
0#
#32
b1 >
1'
b0 (
b0 V
b0 b
1s
b0 =
18
1!
1#
#33
0!
0#
#34
1T
b10 -
b10 P
b11 >
1%
1s
b1 =
08
1!
1#
#35
0!
0#
#36
0T
b0 -
b0 P
b0 >
0'
0%
1s
b11 =
18
1!
1#
#37
0!
0#
#38
b10 2
b10 S
b10 7
b1000010 f
b1 >
1'
b100001000 "
b100001000 ?
b100001000 `
1,
1)
b100001000 (
b100001000 V
b100001000 b
1s
b0 =
08
1!
1#
#39
0!
0#
#40
1T
b10 -
b10 P
b10 >
1%
1s
b1 =
18
b1000010 u
1!
1#
#41
0!
0#
#42
0T
b0 -
b0 P
b100001000 1
b100001000 Q
b100001000 A
b100001000 3
b100001000 W
b0 >
0'
0%
0,
0)
1s
b10 =
08
1!
1#
#43
0!
0#
#44
b1 >
1'
b0 (
b0 V
b0 b
1s
b0 =
18
1!
1#
#45
0!
0#
#46
1T
b10 -
b10 P
b11 >
1%
1s
b1 =
08
1!
1#
#47
0!
0#
#48
0T
b0 -
b0 P
b0 >
0'
0%
1s
b11 =
18
1!
1#
#49
0!
0#
#50
b11 2
b11 S
b11 7
b1000011 f
b1 >
1'
b100001100 "
b100001100 ?
b100001100 `
1,
1)
b100001100 (
b100001100 V
b100001100 b
1s
b0 =
08
1!
1#
#51
0!
0#
#52
1T
b10 -
b10 P
b10 >
1%
1s
b1 =
18
b1000011 u
1!
1#
#53
0!
0#
#54
0T
b0 -
b0 P
b100001100 1
b100001100 Q
b100001100 A
b100001100 3
b100001100 W
b0 >
0'
0%
0,
0)
1s
b10 =
08
1!
1#
#55
0!
0#
#56
b1 >
1'
b0 (
b0 V
b0 b
1s
b0 =
18
1!
1#
#57
0!
0#
#58
1T
b10 -
b10 P
b11 >
1%
1s
b1 =
08
1!
1#
#59
0!
0#
#60
0T
b0 -
b0 P
b0 >
0'
0%
1s
b11 =
18
1!
1#
#61
0!
0#
#62
b100 2
b100 S
b0 7
b1000100 f
b1 >
1'
b100010000 "
b100010000 ?
b100010000 `
1,
1)
b100010000 (
b100010000 V
b100010000 b
1s
b0 =
08
1!
1#
#63
0!
0#
#64
1T
b10 -
b10 P
b10 >
1%
1s
b1 =
18
b1000100 u
1!
1#
#65
0!
0#
#66
0T
b0 -
b0 P
b100010000 1
b100010000 Q
b100010000 A
b100010000 3
b100010000 W
b0 >
0'
0%
0,
0)
1s
b10 =
08
1!
1#
#67
0!
0#
#68
b1 >
1'
b0 (
b0 V
b0 b
1s
b0 =
18
1!
1#
#69
0!
0#
#70
1T
b10 -
b10 P
b11 >
1%
1s
b1 =
08
1!
1#
#71
0!
0#
#72
0T
b0 -
b0 P
b0 >
0'
0%
1s
b11 =
18
1!
1#
#73
0!
0#
#74
b101 2
b101 S
b1 7
b1000101 f
b1 >
1'
b100010100 "
b100010100 ?
b100010100 `
1,
1)
b100010100 (
b100010100 V
b100010100 b
1s
b0 =
08
1!
1#
#75
0!
0#
#76
1T
b10 -
b10 P
b10 >
1%
1s
b1 =
18
b1000101 u
1!
1#
#77
0!
0#
#78
0T
b0 -
b0 P
b100010100 1
b100010100 Q
b100010100 A
b100010100 3
b100010100 W
b0 >
0'
0%
0,
0)
1s
b10 =
08
1!
1#
#79
0!
0#
#80
b1 >
1'
b0 (
b0 V
b0 b
1s
b0 =
18
1!
1#
#81
0!
0#
#82
1T
b10 -
b10 P
b11 >
1%
1s
b1 =
08
1!
1#
#83
0!
0#
#84
0T
b0 -
b0 P
b0 >
0'
0%
1s
b11 =
18
1!
1#
#85
0!
0#
#86
b110 2
b110 S
b10 7
b1000110 f
b1 >
1'
b100011000 "
b100011000 ?
b100011000 `
1,
1)
b100011000 (
b100011000 V
b100011000 b
1s
b0 =
08
1!
1#
#87
0!
0#
#88
1T
b10 -
b10 P
b10 >
1%
1s
b1 =
18
b1000110 u
1!
1#
#89
0!
0#
#90
0T
b0 -
b0 P
b100011000 1
b100011000 Q
b100011000 A
b100011000 3
b100011000 W
b0 >
0'
0%
0,
0)
1s
b10 =
08
1!
1#
#91
0!
0#
#92
b1 >
1'
b0 (
b0 V
b0 b
1s
b0 =
18
1!
1#
#93
0!
0#
#94
1T
b10 -
b10 P
b11 >
1%
1s
b1 =
08
1!
1#
#95
0!
0#
#96
0T
b0 -
b0 P
b0 >
0'
0%
1s
b11 =
18
1!
1#
#97
0!
0#
#98
b111 2
b111 S
b11 7
b1000111 f
b1 >
1'
b100011100 "
b100011100 ?
b100011100 `
1,
1)
b100011100 (
b100011100 V
b100011100 b
1s
b0 =
08
1!
1#
#99
0!
0#
#100
1T
b10 -
b10 P
b10 >
1%
1s
b1 =
18
b1000111 u
1!
1#
#101
0!
0#
#102
0T
b0 -
b0 P
b100011100 1
b100011100 Q
b100011100 A
b100011100 3
b100011100 W
b0 >
0'
0%
0,
0)
1s
b10 =
08
1!
1#
#103
0!
0#
#104
b1 >
1'
b0 (
b0 V
b0 b
1s
b0 =
18
1!
1#
#105
0!
0#
#106
1T
b10 -
b10 P
b11 >
1%
1s
b1 =
08
1!
1#
#107
0!
0#
#108
0T
b0 -
b0 P
b0 >
0'
0%
1s
b11 =
18
1!
1#
#109
0!
0#
#110
b1000 2
b1000 S
b0 7
b1001000 f
b1 >
1'
b100100000 "
b100100000 ?
b100100000 `
1,
1)
b100100000 (
b100100000 V
b100100000 b
1s
b0 =
08
1!
1#
#111
0!
0#
#112
1T
b10 -
b10 P
b10 >
1%
1s
b1 =
18
b1001000 u
1!
1#
#113
0!
0#
#114
0T
b0 -
b0 P
b100100000 1
b100100000 Q
b100100000 A
b100100000 3
b100100000 W
b0 >
0'
0%
0,
0)
1s
b10 =
08
1!
1#
#115
0!
0#
#116
b1 >
1'
b0 (
b0 V
b0 b
1s
b0 =
18
1!
1#
#117
0!
0#
#118
1T
b10 -
b10 P
b11 >
1%
1s
b1 =
08
1!
1#
#119
0!
0#
#120
0T
b0 -
b0 P
b0 >
0'
0%
1s
b11 =
18
1!
1#
#121
0!
0#
#122
b1001 2
b1001 S
b1 7
b1001001 f
b1 >
1'
b100100100 "
b100100100 ?
b100100100 `
1,
1)
b100100100 (
b100100100 V
b100100100 b
1s
b0 =
08
1!
1#
#123
0!
0#
#124
1T
b10 -
b10 P
b10 >
1%
1s
b1 =
18
b1001001 u
1!
1#
#125
0!
0#
#126
0T
b0 -
b0 P
b100100100 1
b100100100 Q
b100100100 A
b100100100 3
b100100100 W
b0 >
0'
0%
0,
0)
1s
b10 =
08
1!
1#
#127
0!
0#
#128
b1 >
1'
b0 (
b0 V
b0 b
1s
b0 =
18
1!
1#
#129
0!
0#
#130
1T
b10 -
b10 P
b11 >
1%
1s
b1 =
08
1!
1#
#131
0!
0#
#132
0T
b0 -
b0 P
b0 >
0'
0%
1s
b11 =
18
1!
1#
#133
0!
0#
#134
b1010 2
b1010 S
b10 7
b1001010 f
b1 >
1'
b100101000 "
b100101000 ?
b100101000 `
1,
1)
b100101000 (
b100101000 V
b100101000 b
1s
b0 =
08
1!
1#
#135
0!
0#
#136
1T
b10 -
b10 P
b10 >
1%
1s
b1 =
18
b1001010 u
1!
1#
#137
0!
0#
#138
0T
b0 -
b0 P
b100101000 1
b100101000 Q
b100101000 A
b100101000 3
b100101000 W
b0 >
0'
0%
0,
0)
1s
b10 =
08
1!
1#
#139
0!
0#
#140
b1 >
1'
b0 (
b0 V
b0 b
1s
b0 =
18
1!
1#
#141
0!
0#
#142
1T
b10 -
b10 P
b11 >
1%
1s
b1 =
08
1!
1#
#143
0!
0#
#144
0T
b0 -
b0 P
b0 >
0'
0%
1s
b11 =
18
1!
1#
#145
0!
0#
#146
b1011 2
b1011 S
b11 7
b1001011 f
b1 >
1'
b100101100 "
b100101100 ?
b100101100 `
1,
1)
b100101100 (
b100101100 V
b100101100 b
1s
b0 =
08
1!
1#
#147
0!
0#
#148
1T
b10 -
b10 P
b10 >
1%
1s
b1 =
18
b1001011 u
1!
1#
#149
0!
0#
#150
0T
b0 -
b0 P
b100101100 1
b100101100 Q
b100101100 A
b100101100 3
b100101100 W
b0 >
0'
0%
0,
0)
1s
b10 =
08
1!
1#
#151
0!
0#
#152
b1 >
1'
b0 (
b0 V
b0 b
1s
b0 =
18
1!
1#
#153
0!
0#
#154
1T
b10 -
b10 P
b11 >
1%
1s
b1 =
08
1!
1#
#155
0!
0#
#156
0T
b0 -
b0 P
b0 >
0'
0%
1s
b11 =
18
1!
1#
#157
0!
0#
#158
b1100 2
b1100 S
b0 7
b1001100 f
b1 >
1'
b100110000 "
b100110000 ?
b100110000 `
1,
1)
b100110000 (
b100110000 V
b100110000 b
1s
b0 =
08
1!
1#
#159
0!
0#
#160
1T
b10 -
b10 P
b10 >
1%
1s
b1 =
18
b1001100 u
1!
1#
#161
0!
0#
#162
0T
b0 -
b0 P
b100110000 1
b100110000 Q
b100110000 A
b100110000 3
b100110000 W
b0 >
0'
0%
0,
0)
1s
b10 =
08
1!
1#
#163
0!
0#
#164
b1 >
1'
b0 (
b0 V
b0 b
1s
b0 =
18
1!
1#
#165
0!
0#
#166
1T
b10 -
b10 P
b11 >
1%
1s
b1 =
08
1!
1#
#167
0!
0#
#168
0T
b0 -
b0 P
b0 >
0'
0%
1s
b11 =
18
1!
1#
#169
0!
0#
#170
b1101 2
b1101 S
b1 7
b1001101 f
b1 >
1'
b100110100 "
b100110100 ?
b100110100 `
1,
1)
b100110100 (
b100110100 V
b100110100 b
1s
b0 =
08
1!
1#
#171
0!
0#
#172
1T
b10 -
b10 P
b10 >
1%
1s
b1 =
18
b1001101 u
1!
1#
#173
0!
0#
#174
0T
b0 -
b0 P
b100110100 1
b100110100 Q
b100110100 A
b100110100 3
b100110100 W
b0 >
0'
0%
0,
0)
1s
b10 =
08
1!
1#
#175
0!
0#
#176
b1 >
1'
b0 (
b0 V
b0 b
1s
b0 =
18
1!
1#
#177
0!
0#
#178
1T
b10 -
b10 P
b11 >
1%
1s
b1 =
08
1!
1#
#179
0!
0#
#180
0T
b0 -
b0 P
b0 >
0'
0%
1s
b11 =
18
1!
1#
#181
0!
0#
#182
b1110 2
b1110 S
b10 7
b1001110 f
b1 >
1'
b100111000 "
b100111000 ?
b100111000 `
1,
1)
b100111000 (
b100111000 V
b100111000 b
1s
b0 =
08
1!
1#
#183
0!
0#
#184
1T
b10 -
b10 P
b10 >
1%
1s
b1 =
18
b1001110 u
1!
1#
#185
0!
0#
#186
0T
b0 -
b0 P
b100111000 1
b100111000 Q
b100111000 A
b100111000 3
b100111000 W
b0 >
0'
0%
0,
0)
1s
b10 =
08
1!
1#
#187
0!
0#
#188
b1 >
1'
b0 (
b0 V
b0 b
1s
b0 =
18
1!
1#
#189
0!
0#
#190
1T
b10 -
b10 P
b11 >
1%
1s
b1 =
08
1!
1#
#191
0!
0#
#192
0T
b0 -
b0 P
b0 >
0'
0%
1s
b11 =
18
1!
1#
#193
0!
0#
#194
b1111 2
b1111 S
b11 7
b1001111 f
b1 >
1'
b100111100 "
b100111100 ?
b100111100 `
1,
1)
b100111100 (
b100111100 V
b100111100 b
1s
b0 =
08
1!
1#
#195
0!
0#
#196
1T
b10 -
b10 P
b10 >
1%
1s
b1 =
18
b1001111 u
1!
1#
#197
0!
0#
#198
0T
b0 -
b0 P
b100111100 1
b100111100 Q
b100111100 A
b100111100 3
b100111100 W
b0 >
0'
0%
0,
0)
1s
b10 =
08
1!
1#
#199
0!
0#
#200
b1 >
1'
b0 (
b0 V
b0 b
1s
b0 =
18
1!
1#
#201
0!
0#
#202
1T
b10 -
b10 P
b11 >
1%
1s
b1 =
08
1!
1#
#203
0!
0#
#204
0T
b0 -
b0 P
b0 >
0'
0%
1s
b11 =
18
1!
1#
#205
0!
0#
#206
b10000 2
b10000 S
b0 7
b1010000 f
b1 >
1'
b101000000 "
b101000000 ?
b101000000 `
1,
1)
b101000000 (
b101000000 V
b101000000 b
1s
b0 =
08
1!
1#
#207
0!
0#
#208
1T
b10 -
b10 P
b10 >
1%
1s
b1 =
18
b1010000 u
1!
1#
#209
0!
0#
#210
0T
b0 -
b0 P
b101000000 1
b101000000 Q
b101000000 A
b101000000 3
b101000000 W
b0 >
0'
0%
0,
0)
1s
b10 =
08
1!
1#
#211
0!
0#
#212
b1 >
1'
b0 (
b0 V
b0 b
1s
b0 =
18
1!
1#
#213
0!
0#
#214
1T
b10 -
b10 P
b11 >
1%
1s
b1 =
08
1!
1#
#215
0!
0#
#216
0T
b0 -
b0 P
b0 >
0'
0%
1s
b11 =
18
1!
1#
#217
0!
0#
#218
b10001 2
b10001 S
b1 7
b1010001 f
b1 >
1'
b101000100 "
b101000100 ?
b101000100 `
1,
1)
b101000100 (
b101000100 V
b101000100 b
1s
b0 =
08
1!
1#
#219
0!
0#
#220
1T
b10 -
b10 P
b10 >
1%
1s
b1 =
18
b1010001 u
1!
1#
#221
0!
0#
#222
0T
b0 -
b0 P
b101000100 1
b101000100 Q
b101000100 A
b101000100 3
b101000100 W
b0 >
0'
0%
0,
0)
1s
b10 =
08
1!
1#
#223
0!
0#
#224
b1 >
1'
b0 (
b0 V
b0 b
1s
b0 =
18
1!
1#
#225
0!
0#
#226
1T
b10 -
b10 P
b11 >
1%
1s
b1 =
08
1!
1#
#227
0!
0#
#228
0T
b0 -
b0 P
b0 >
0'
0%
1s
b11 =
18
1!
1#
#229
0!
0#
#230
b10010 2
b10010 S
b10 7
b1010010 f
b1 >
1'
b101001000 "
b101001000 ?
b101001000 `
1,
1)
b101001000 (
b101001000 V
b101001000 b
1s
b0 =
08
1!
1#
#231
0!
0#
#232
1T
b10 -
b10 P
b10 >
1%
1s
b1 =
18
b1010010 u
1!
1#
#233
0!
0#
#234
0T
b0 -
b0 P
b101001000 1
b101001000 Q
b101001000 A
b101001000 3
b101001000 W
b0 >
0'
0%
0,
0)
1s
b10 =
08
1!
1#
#235
0!
0#
#236
b1 >
1'
b0 (
b0 V
b0 b
1s
b0 =
18
1!
1#
#237
0!
0#
#238
1T
b10 -
b10 P
b11 >
1%
1s
b1 =
08
1!
1#
#239
0!
0#
#240
0T
b0 -
b0 P
b0 >
0'
0%
1s
b11 =
18
1!
1#
#241
0!
0#
#242
b10011 2
b10011 S
b11 7
b1010011 f
b1 >
1'
b101001100 "
b101001100 ?
b101001100 `
1,
1)
b101001100 (
b101001100 V
b101001100 b
1s
b0 =
08
1!
1#
#243
0!
0#
#244
1T
b10 -
b10 P
b10 >
1%
1s
b1 =
18
b1010011 u
1!
1#
#245
0!
0#
#246
0T
b0 -
b0 P
b101001100 1
b101001100 Q
b101001100 A
b101001100 3
b101001100 W
b0 >
0'
0%
0,
0)
1s
b10 =
08
1!
1#
#247
0!
0#
#248
b1 >
1'
b0 (
b0 V
b0 b
1s
b0 =
18
1!
1#
#249
0!
0#
#250
1T
b10 -
b10 P
b11 >
1%
1s
b1 =
08
1!
1#
#251
0!
0#
#252
0T
b0 -
b0 P
b0 >
0'
0%
1s
b11 =
18
1!
1#
#253
0!
0#
#254
b10100 2
b10100 S
b0 7
b1010100 f
b1 >
1'
b101010000 "
b101010000 ?
b101010000 `
1,
1)
b101010000 (
b101010000 V
b101010000 b
1s
b0 =
08
1!
1#
#255
0!
0#
#256
1T
b10 -
b10 P
b10 >
1%
1s
b1 =
18
b1010100 u
1!
1#
#257
0!
0#
#258
0T
b0 -
b0 P
b101010000 1
b101010000 Q
b101010000 A
b101010000 3
b101010000 W
b0 >
0'
0%
0,
0)
1s
b10 =
08
1!
1#
#259
0!
0#
#260
b1 >
1'
b0 (
b0 V
b0 b
1s
b0 =
18
1!
1#
#261
0!
0#
#262
1T
b10 -
b10 P
b11 >
1%
1s
b1 =
08
1!
1#
#263
0!
0#
#264
0T
b0 -
b0 P
b0 >
0'
0%
1s
b11 =
18
1!
1#
#265
0!
0#
#266
b10101 2
b10101 S
b1 7
b1010101 f
b1 >
1'
b101010100 "
b101010100 ?
b101010100 `
1,
1)
b101010100 (
b101010100 V
b101010100 b
1s
b0 =
08
1!
1#
#267
0!
0#
#268
1T
b10 -
b10 P
b10 >
1%
1s
b1 =
18
b1010101 u
1!
1#
#269
0!
0#
#270
0T
b0 -
b0 P
b101010100 1
b101010100 Q
b101010100 A
b101010100 3
b101010100 W
b0 >
0'
0%
0,
0)
1s
b10 =
08
1!
1#
#271
0!
0#
#272
b1 >
1'
b0 (
b0 V
b0 b
1s
b0 =
18
1!
1#
#273
0!
0#
#274
1T
b10 -
b10 P
b11 >
1%
1s
b1 =
08
1!
1#
#275
0!
0#
#276
0T
b0 -
b0 P
b0 >
0'
0%
1s
b11 =
18
1!
1#
#277
0!
0#
#278
b10110 2
b10110 S
b10 7
b1010110 f
b1 >
1'
b101011000 "
b101011000 ?
b101011000 `
1,
1)
b101011000 (
b101011000 V
b101011000 b
1s
b0 =
08
1!
1#
#279
0!
0#
#280
1T
b10 -
b10 P
b10 >
1%
1s
b1 =
18
b1010110 u
1!
1#
#281
0!
0#
#282
0T
b0 -
b0 P
b101011000 1
b101011000 Q
b101011000 A
b101011000 3
b101011000 W
b0 >
0'
0%
0,
0)
1s
b10 =
08
1!
1#
#283
0!
0#
#284
b1 >
1'
b0 (
b0 V
b0 b
1s
b0 =
18
1!
1#
#285
0!
0#
#286
1T
b10 -
b10 P
b11 >
1%
1s
b1 =
08
1!
1#
#287
0!
0#
#288
0T
b0 -
b0 P
b0 >
0'
0%
1s
b11 =
18
1!
1#
#289
0!
0#
#290
b10111 2
b10111 S
b11 7
b1010111 f
b1 >
1'
b101011100 "
b101011100 ?
b101011100 `
1,
1)
b101011100 (
b101011100 V
b101011100 b
1s
b0 =
08
1!
1#
#291
0!
0#
#292
1T
b10 -
b10 P
b10 >
1%
1s
b1 =
18
b1010111 u
1!
1#
#293
0!
0#
#294
0T
b0 -
b0 P
b101011100 1
b101011100 Q
b101011100 A
b101011100 3
b101011100 W
b0 >
0'
0%
0,
0)
1s
b10 =
08
1!
1#
#295
0!
0#
#296
b1 >
1'
b0 (
b0 V
b0 b
1s
b0 =
18
1!
1#
#297
0!
0#
#298
1T
b10 -
b10 P
b11 >
1%
1s
b1 =
08
1!
1#
#299
0!
0#
#300
0T
b0 -
b0 P
b0 >
0'
0%
1s
b11 =
18
1!
1#
#301
0!
0#
#302
b11000 2
b11000 S
b0 7
b1011000 f
b1 >
1'
b101100000 "
b101100000 ?
b101100000 `
1,
1)
b101100000 (
b101100000 V
b101100000 b
1s
b0 =
08
1!
1#
#303
0!
0#
#304
1T
b10 -
b10 P
b10 >
1%
1s
b1 =
18
b1011000 u
1!
1#
#305
0!
0#
#306
0T
b0 -
b0 P
b101100000 1
b101100000 Q
b101100000 A
b101100000 3
b101100000 W
b0 >
0'
0%
0,
0)
1s
b10 =
08
1!
1#
#307
0!
0#
#308
b1 >
1'
b0 (
b0 V
b0 b
1s
b0 =
18
1!
1#
#309
0!
0#
#310
1T
b10 -
b10 P
b11 >
1%
1s
b1 =
08
1!
1#
#311
0!
0#
#312
0T
b0 -
b0 P
b0 >
0'
0%
1s
b11 =
18
1!
1#
#313
0!
0#
#314
b11001 2
b11001 S
b1 7
b1011001 f
b1 >
1'
b101100100 "
b101100100 ?
b101100100 `
1,
1)
b101100100 (
b101100100 V
b101100100 b
1s
b0 =
08
1!
1#
#315
0!
0#
#316
1T
b10 -
b10 P
b10 >
1%
1s
b1 =
18
b1011001 u
1!
1#
#317
0!
0#
#318
0T
b0 -
b0 P
b101100100 1
b101100100 Q
b101100100 A
b101100100 3
b101100100 W
b0 >
0'
0%
0,
0)
1s
b10 =
08
1!
1#
#319
0!
0#
#320
b1 >
1'
b0 (
b0 V
b0 b
1s
b0 =
18
1!
1#
#321
0!
0#
#322
1T
b10 -
b10 P
b11 >
1%
1s
b1 =
08
1!
1#
#323
0!
0#
#324
0T
b0 -
b0 P
b0 >
0'
0%
1s
b11 =
18
1!
1#
#325
0!
0#
#326
b11010 2
b11010 S
b10 7
b1011010 f
b1 >
1'
b101101000 "
b101101000 ?
b101101000 `
1,
1)
b101101000 (
b101101000 V
b101101000 b
1s
b0 =
08
1!
1#
#327
0!
0#
#328
1T
b10 -
b10 P
b10 >
1%
1s
b1 =
18
b1011010 u
1!
1#
#329
0!
0#
#330
0T
b0 -
b0 P
b101101000 1
b101101000 Q
b101101000 A
b101101000 3
b101101000 W
b0 >
0'
0%
0,
0)
1s
b10 =
08
1!
1#
#331
0!
0#
#332
b1 >
1'
b0 (
b0 V
b0 b
1s
b0 =
18
1!
1#
#333
0!
0#
#334
1T
b10 -
b10 P
b11 >
1%
1s
b1 =
08
1!
1#
#335
0!
0#
#336
0T
b0 -
b0 P
b0 >
0'
0%
1s
b11 =
18
1!
1#
#337
0!
0#
#338
b11011 2
b11011 S
b11 7
b1011011 f
b1 >
1'
b101101100 "
b101101100 ?
b101101100 `
1,
1)
b101101100 (
b101101100 V
b101101100 b
1s
b0 =
08
1!
1#
#339
0!
0#
#340
1T
b10 -
b10 P
b10 >
1%
1s
b1 =
18
b1011011 u
1!
1#
#341
0!
0#
#342
0T
b0 -
b0 P
b101101100 1
b101101100 Q
b101101100 A
b101101100 3
b101101100 W
b0 >
0'
0%
0,
0)
1s
b10 =
08
1!
1#
#343
0!
0#
#344
b1 >
1'
b0 (
b0 V
b0 b
1s
b0 =
18
1!
1#
#345
0!
0#
